{
  "project_info": {
    "project_number": "414271066576",
    "firebase_url": "https://solar-ginie.firebaseio.com",
    "project_id": "solar-ginie",
    "storage_bucket": "solar-ginie.appspot.com"
  },
  "client": [
    {
      "client_info": {
        "mobilesdk_app_id": "1:414271066576:android:c8c111d7d172265e3629d5",
        "android_client_info": {
          "package_name": "com.solarginie"
        }
      },
      "oauth_client": [
        {
          "client_id": "414271066576-iss9s0hperdencgt08bri0tjln1g88ll.apps.googleusercontent.com",
          "client_type": 3
        }
      ],
      "api_key": [
        {
          "current_key": "AIzaSyD0Z5Ax6hlf-RObkyT1hNIS3QepdJg_35E"
        }
      ],
      "services": {
        "appinvite_service": {
          "other_platform_oauth_client": [
            {
              "client_id": "414271066576-iss9s0hperdencgt08bri0tjln1g88ll.apps.googleusercontent.com",
              "client_type": 3
            }
          ]
        }
      }
    },
    {
      "client_info": {
        "mobilesdk_app_id": "1:414271066576:android:c8c111d7d172265e3629d5",
        "android_client_info": {
          "package_name": "com.solarginie_uat"
        }
      },
      "oauth_client": [
        {
          "client_id": "414271066576-iss9s0hperdencgt08bri0tjln1g88ll.apps.googleusercontent.com",
          "client_type": 3
        }
      ],
      "api_key": [
        {
          "current_key": "AIzaSyD0Z5Ax6hlf-RObkyT1hNIS3QepdJg_35E"
        }
      ],
      "services": {
        "appinvite_service": {
          "other_platform_oauth_client": [
            {
              "client_id": "414271066576-iss9s0hperdencgt08bri0tjln1g88ll.apps.googleusercontent.com",
              "client_type": 3
            }
          ]
        }
      }
    }
  ],
  "configuration_version": "1"
}